%YAML 1.1
%TAG !u! tag:unity3d.com,2011:
--- !u!74 &7400000
AnimationClip:
  m_ObjectHideFlags: 0
  m_CorrespondingSourceObject: {fileID: 0}
  m_PrefabInternal: {fileID: 0}
  m_Name: slime_death
  serializedVersion: 6
  m_Legacy: 0
  m_Compressed: 0
  m_UseHighQualityCurve: 1
  m_RotationCurves: []
  m_CompressedRotationCurves: []
  m_EulerCurves: []
  m_PositionCurves: []
  m_ScaleCurves: []
  m_FloatCurves: []
  m_PPtrCurves:
  - curve:
    - time: 0
      value: {fileID: 21300000, guid: fc19ee0e3d760994fa5e2be9055a3683, type: 3}
    - time: 0.083333336
      value: {fileID: 21300000, guid: 6fff3aa67306b95429c0ebaf1ad825d1, type: 3}
    - time: 0.16666667
      value: {fileID: 21300000, guid: bf151e6bc054bf14ca8755915c51cc68, type: 3}
    - time: 0.25
      value: {fileID: 21300000, guid: 8bcf745038d9ced45b9586ba19fd1585, type: 3}
    - time: 0.33333334
      value: {fileID: 21300000, guid: ac9ff2c633a90d849898d695e350dcd4, type: 3}
    - time: 0.41666666
      value: {fileID: 21300000, guid: a605b8b7497b9904cb6ea631569d01ae, type: 3}
    - time: 0.5
      value: {fileID: 21300000, guid: bdfbfd6a14706414bbe01c4dac89df0d, type: 3}
    - time: 0.5833333
      value: {fileID: 21300000, guid: b6de36890d50cc843bdf415ac455a15f, type: 3}
    - time: 0.6666667
      value: {fileID: 21300000, guid: d43c3a8fefcc29547a656c78f6f72fc3, type: 3}
    attribute: m_Sprite
    path: 
    classID: 212
    script: {fileID: 0}
  m_SampleRate: 12
  m_WrapMode: 0
  m_Bounds:
    m_Center: {x: 0, y: 0, z: 0}
    m_Extent: {x: 0, y: 0, z: 0}
  m_ClipBindingConstant:
    genericBindings:
    - serializedVersion: 2
      path: 0
      attribute: 0
      script: {fileID: 0}
      typeID: 212
      customType: 23
      isPPtrCurve: 1
    pptrCurveMapping:
    - {fileID: 21300000, guid: fc19ee0e3d760994fa5e2be9055a3683, type: 3}
    - {fileID: 21300000, guid: 6fff3aa67306b95429c0ebaf1ad825d1, type: 3}
    - {fileID: 21300000, guid: bf151e6bc054bf14ca8755915c51cc68, type: 3}
    - {fileID: 21300000, guid: 8bcf745038d9ced45b9586ba19fd1585, type: 3}
    - {fileID: 21300000, guid: ac9ff2c633a90d849898d695e350dcd4, type: 3}
    - {fileID: 21300000, guid: a605b8b7497b9904cb6ea631569d01ae, type: 3}
    - {fileID: 21300000, guid: bdfbfd6a14706414bbe01c4dac89df0d, type: 3}
    - {fileID: 21300000, guid: b6de36890d50cc843bdf415ac455a15f, type: 3}
    - {fileID: 21300000, guid: d43c3a8fefcc29547a656c78f6f72fc3, type: 3}
  m_AnimationClipSettings:
    serializedVersion: 2
    m_AdditiveReferencePoseClip: {fileID: 0}
    m_AdditiveReferencePoseTime: 0
    m_StartTime: 0
    m_StopTime: 0.75
    m_OrientationOffsetY: 0
    m_Level: 0
    m_CycleOffset: 0
    m_HasAdditiveReferencePose: 0
    m_LoopTime: 0
    m_LoopBlend: 0
    m_LoopBlendOrientation: 0
    m_LoopBlendPositionY: 0
    m_LoopBlendPositionXZ: 0
    m_KeepOriginalOrientation: 0
    m_KeepOriginalPositionY: 1
    m_KeepOriginalPositionXZ: 0
    m_HeightFromFeet: 0
    m_Mirror: 0
  m_EditorCurves: []
  m_EulerEditorCurves: []
  m_HasGenericRootTransform: 0
  m_HasMotionFloatCurves: 0
  m_GenerateMotionCurves: 0
  m_Events: []
